{
	"$schema": "../node_modules/@tauri-apps/cli/schema.json",
	"build": {
		"beforeBuildCommand": "npm run build:web",
		"beforeDevCommand": "npm run dev:web",
		"devPath": "http://localhost:5173",
		"distDir": "../build"
	},
	"package": {
		"productName": "tauri-sveltekit-capacitorjs-threejs-template",
		"version": "1.0.0"
	},
	"tauri": {
		"allowlist": {
			"all": false
		},
		"bundle": {
			"active": true,
			"category": "DeveloperTool",
			"copyright": "",
			"deb": {
				"depends": []
			},
			"externalBin": [],
			"icon": [
				"icons/32x32.png",
				"icons/128x128.png",
				"icons/128x128@2x.png",
				"icons/icon.icns",
				"icons/icon.ico"
			],
			"identifier": "com.example.tauri-sveltekit-capacitorjs-threejs-template",
			"longDescription": "",
			"macOS": {
				"entitlements": null,
				"exceptionDomain": "",
				"frameworks": [],
				"providerShortName": null,
				"signingIdentity": null
			},
			"resources": [],
			"shortDescription": "",
			"targets": "all",
			"windows": {
				"certificateThumbprint": null,
				"digestAlgorithm": "sha256",
				"timestampUrl": ""
			}
		},
		"security": {
			"csp": null
		},
		"updater": {
			"active": false
		},
		"windows": [
			{
				"fullscreen": false,
				"height": 600,
				"resizable": true,
				"title": "tauri-sveltekit-capacitorjs-threejs-template",
				"width": 800
			}
		]
	}
}
